-------------------------------------------------------------------------------
Test set: com.ontech.onapp.MsDiscoveryApplicationTests
-------------------------------------------------------------------------------
Tests run: 1, Failures: 0, Errors: 0, Skipped: 0, Time elapsed: 8.245 sec - in com.ontech.onapp.MsDiscoveryApplicationTests
